社會科學統計方法
…
tmp<-strsplit(c(document,doc), split=" ")

分割文本為個別的字串後，就可以計算有興趣的文字出現幾次。

## # A tibble: 598 x 2
##    W     Count
##    <fct> <int>
##  1 the      73
##  2 of       72
##  3 to       60
##  4 and      47
##  5 our      22
##  6 has      20
##  7 their    20
##  8 for      19
##  9 he       19
## 10 in       18
## # … with 588 more rows
…
